{
	"url": "https://download.fedoraproject.org/pub/fedora/linux/releases/35/Server/aarch64/images/Fedora-Server-35-1.2.aarch64.raw.xz",
	"sig": "",
	"cache": "/var/cache/dnf/",
	"script": [
		"touch /.initial-setup",
		"dnf config-manager --add-repo https://download.opensuse.org/repositories/home:/Azkali:/Tegra:/Xavier/Fedora_35/home:Azkali:Tegra:Xavier.repo",
		"dnf config-manager --add-repo https://download.opensuse.org/repositories/home:/Azkali:/Tegra/Fedora_35/home:Azkali:Tegra.repo",
		"rpm -qa | grep '^kernel' | xargs rpm -e --noscripts --nodeps",
		"echo 'exclude=kernel*-5*' >> /etc/dnf/dnf.conf",
		"dnf -y remove linux-firmware",
		"dnf -y --skip-broken --best --allowerasing install https://download1.rpmfusion.org/free/fedora/rpmfusion-free-release-$(rpm -E %fedora).noarch.rpm https://download1.rpmfusion.org/nonfree/fedora/rpmfusion-nonfree-release-$(rpm -E %fedora).noarch.rpm",
		"dnf -y --allowerasing install jetson-xavier-meta",
		"dnf -y clean all"
	]
}
